Dataset, EDA and research question
…
Trending channels

CAN %>% group_by(channel_title) %>% 
  summarise(count = n(),
            sum_views = mean(views),
            sum_likes = mean(likes),
            sum_comments = mean(comment_count),
            sum_dislikes = mean(dislikes)) %>% 
  arrange(desc(sum_comments))

## # A tibble: 5,076 x 6
##    channel_title        count sum_views sum_likes sum_comments sum_dislikes
##    <fct>                <int>     <dbl>     <dbl>        <dbl>        <dbl>
##  1 ibighit                 19 26924627.  2645257.      481934.       48049 
##  2 YouTube Spotlight       13 48921290.  1298430.      415868.      684502.
##  3 Sn Tng M-TP Offic     3 22644781    688323.      350702       104675 
##  4 David Dobrik             6 20730493.  1426159.      234462.       67102.
##  5 ChildishGambinoVEVO      8 51471884.  1824240.      193143.       86244.
##  6 ArianaGrandeVevo         6 26802486.  1616078       155179.       53162.
##  7 SuperMarioLogan          3  4949177    177674.      145083         3304.
##  8 The ACE Family           4  4783226.   498761.      144699         3963.
##  9 Logan Paul Vlogs        30  8082445.   653078.      143946.       81797.
## 10 Collins Key              5  7822828.   688416.      136154.       11864.
## #  with 5,066 more rows
…
